2 Data – Political, Racial, and Geographical Trends in the School To Prison Pipeline
…
# All data columns that may contain missing values
data_cols <- setdiff(names(crdc_raw), id_cols)

missing_by_state <- crdc_raw |>
  group_by(state) |>
  summarise(
    missing_count = sum(is.na(across(all_of(data_cols)))),
    total_cells   = sum(length(data_cols)),
    .groups       = "drop"
  ) |>
  arrange(desc(missing_count))

missing_by_state

# A tibble: 52 × 3
   state missing_count total_cells
   <chr>         <int>       <int>
 1 CA         17574461        3462
 2 TX         15309152        3462
 3 NY          8482950        3462
 4 IL          7284956        3462
 5 AZ          6991934        3462
 6 FL          6907553        3462
 7 OH          6148898        3462
 8 MI          6075222        3462
 9 PA          5115624        3462
10 NC          4656149        3462
# ℹ 42 more rows
…
state_missing_enroll

# A tibble: 50 × 3
   state total_enrollment missing_count
   <chr>            <dbl>         <int>
 1 AK              490579       1020268
 2 AL             2849395       2869138
 3 AR             2040355       2180517
 4 CO             3975478       3934986
 5 CT             2291741       2427903
 6 DC              406474        496695
 7 DE              598137        477807
 8 FL            12346106       8137955
 9 GA             7590879       4893978
10 HI              550006        606409
# ℹ 40 more rows
…
